simulation/qsim/sigmoid.msim.vcd
$comment
	File created using the following command:
		vcd file sigmoid.msim.vcd -direction
$end
$date
	Fri Aug  7 15:46:47 2020
$end
$version
	ModelSim Version 10.5b
$end
$timescale
	1ps
$end

$scope module sigmoid_vlg_vec_tst $end
$var reg 16 ! x [15:0] $end
$var wire 1 " y [15] $end
$var wire 1 # y [14] $end
$var wire 1 $ y [13] $end
$var wire 1 % y [12] $end
$var wire 1 & y [11] $end
$var wire 1 ' y [10] $end
$var wire 1 ( y [9] $end
$var wire 1 ) y [8] $end
$var wire 1 * y [7] $end
$var wire 1 + y [6] $end
$var wire 1 , y [5] $end
$var wire 1 - y [4] $end
$var wire 1 . y [3] $end
$var wire 1 / y [2] $end
$var wire 1 0 y [1] $end
$var wire 1 1 y [0] $end

$scope module i1 $end
$var wire 1 2 gnd $end
$var wire 1 3 vcc $end
$var wire 1 4 unknown $end
$var tri1 1 5 devclrn $end
$var tri1 1 6 devpor $end
$var tri1 1 7 devoe $end
$var wire 1 8 y[0]~output_o $end
$var wire 1 9 y[1]~output_o $end
$var wire 1 : y[2]~output_o $end
$var wire 1 ; y[3]~output_o $end
$var wire 1 < y[4]~output_o $end
$var wire 1 = y[5]~output_o $end
$var wire 1 > y[6]~output_o $end
$var wire 1 ? y[7]~output_o $end
$var wire 1 @ y[8]~output_o $end
$var wire 1 A y[9]~output_o $end
$var wire 1 B y[10]~output_o $end
$var wire 1 C y[11]~output_o $end
$var wire 1 D y[12]~output_o $end
$var wire 1 E y[13]~output_o $end
$var wire 1 F y[14]~output_o $end
$var wire 1 G y[15]~output_o $end
$var wire 1 H x[12]~input_o $end
$var wire 1 I x[13]~input_o $end
$var wire 1 J x[9]~input_o $end
$var wire 1 K x[10]~input_o $end
$var wire 1 L Equal0~4_combout $end
$var wire 1 M x[4]~input_o $end
$var wire 1 N x[5]~input_o $end
$var wire 1 O x[7]~input_o $end
$var wire 1 P x[6]~input_o $end
$var wire 1 Q Equal0~3_combout $end
$var wire 1 R x[8]~input_o $end
$var wire 1 S x[1]~input_o $end
$var wire 1 T x[3]~input_o $end
$var wire 1 U x[0]~input_o $end
$var wire 1 V x[2]~input_o $end
$var wire 1 W Equal0~2_combout $end
$var wire 1 X Equal0~5_combout $end
$var wire 1 Y x[11]~input_o $end
$var wire 1 Z always1~35_combout $end
$var wire 1 [ x[15]~input_o $end
$var wire 1 \ x[14]~input_o $end
$var wire 1 ] always1~59_combout $end
$var wire 1 ^ Equal0~11_combout $end
$var wire 1 _ y~40_combout $end
$var wire 1 ` always1~22_combout $end
$var wire 1 a always1~38_combout $end
$var wire 1 b always1~39_combout $end
$var wire 1 c always1~36_combout $end
$var wire 1 d always1~37_combout $end
$var wire 1 e y~55_combout $end
$var wire 1 f always1~42_combout $end
$var wire 1 g Equal0~6_combout $end
$var wire 1 h always1~40_combout $end
$var wire 1 i always1~41_combout $end
$var wire 1 j always1~58_combout $end
$var wire 1 k Equal0~9_combout $end
$var wire 1 l y~56_combout $end
$var wire 1 m always1~34_combout $end
$var wire 1 n y~57_combout $end
$var wire 1 o always1~29_combout $end
$var wire 1 p always1~31_combout $end
$var wire 1 q y~125_combout $end
$var wire 1 r always1~23_combout $end
$var wire 1 s always1~28_combout $end
$var wire 1 t always1~30_combout $end
$var wire 1 u y~49_combout $end
$var wire 1 v always1~27_combout $end
$var wire 1 w y~45_combout $end
$var wire 1 x always1~25_combout $end
$var wire 1 y always1~26_combout $end
$var wire 1 z y~46_combout $end
$var wire 1 { y~50_combout $end
$var wire 1 | always1~32_combout $end
$var wire 1 } y~126_combout $end
$var wire 1 ~ y~51_combout $end
$var wire 1 !! y~52_combout $end
$var wire 1 "! Equal0~7_combout $end
$var wire 1 #! always1~33_combout $end
$var wire 1 $! y~53_combout $end
$var wire 1 %! y~54_combout $end
$var wire 1 &! y~58_combout $end
$var wire 1 '! Equal0~10_combout $end
$var wire 1 (! y~42_combout $end
$var wire 1 )! Equal0~8_combout $end
$var wire 1 *! y~43_combout $end
$var wire 1 +! y~124_combout $end
$var wire 1 ,! y~135_combout $end
$var wire 1 -! y~44_combout $end
$var wire 1 .! always1~24_combout $end
$var wire 1 /! always1~57_combout $end
$var wire 1 0! y~47_combout $end
$var wire 1 1! y~48_combout $end
$var wire 1 2! y~59_combout $end
$var wire 1 3! always1~43_combout $end
$var wire 1 4! always1~60_combout $end
$var wire 1 5! always1~61_combout $end
$var wire 1 6! y~66_combout $end
$var wire 1 7! y~67_combout $end
$var wire 1 8! y~63_combout $end
$var wire 1 9! y~64_combout $end
$var wire 1 :! y~65_combout $end
$var wire 1 ;! y~127_combout $end
$var wire 1 <! y~68_combout $end
$var wire 1 =! y~60_combout $end
$var wire 1 >! y~61_combout $end
$var wire 1 ?! y~62_combout $end
$var wire 1 @! y~69_combout $end
$var wire 1 A! y~70_combout $end
$var wire 1 B! y~72_combout $end
$var wire 1 C! always1~46_combout $end
$var wire 1 D! always1~47_combout $end
$var wire 1 E! always1~48_combout $end
$var wire 1 F! y~128_combout $end
$var wire 1 G! always1~62_combout $end
$var wire 1 H! always1~44_combout $end
$var wire 1 I! always1~45_combout $end
$var wire 1 J! y~71_combout $end
$var wire 1 K! y~73_combout $end
$var wire 1 L! y~74_combout $end
$var wire 1 M! y~75_combout $end
$var wire 1 N! always1~49_combout $end
$var wire 1 O! always1~50_combout $end
$var wire 1 P! y~78_combout $end
$var wire 1 Q! y~79_combout $end
$var wire 1 R! y~80_combout $end
$var wire 1 S! y~136_combout $end
$var wire 1 T! always1~51_combout $end
$var wire 1 U! y~82_combout $end
$var wire 1 V! y~81_combout $end
$var wire 1 W! y~83_combout $end
$var wire 1 X! y~76_combout $end
$var wire 1 Y! y~77_combout $end
$var wire 1 Z! y~84_combout $end
$var wire 1 [! always1~52_combout $end
$var wire 1 \! y~86_combout $end
$var wire 1 ]! y~87_combout $end
$var wire 1 ^! y~85_combout $end
$var wire 1 _! y~88_combout $end
$var wire 1 `! y~129_combout $end
$var wire 1 a! y~89_combout $end
$var wire 1 b! y~90_combout $end
$var wire 1 c! y~91_combout $end
$var wire 1 d! y~130_combout $end
$var wire 1 e! y~92_combout $end
$var wire 1 f! y~93_combout $end
$var wire 1 g! always1~53_combout $end
$var wire 1 h! always1~54_combout $end
$var wire 1 i! y~94_combout $end
$var wire 1 j! y~95_combout $end
$var wire 1 k! always1~63_combout $end
$var wire 1 l! y~96_combout $end
$var wire 1 m! y~97_combout $end
$var wire 1 n! y~98_combout $end
$var wire 1 o! y~131_combout $end
$var wire 1 p! y~99_combout $end
$var wire 1 q! y~102_combout $end
$var wire 1 r! y~103_combout $end
$var wire 1 s! y~132_combout $end
$var wire 1 t! y~100_combout $end
$var wire 1 u! y~101_combout $end
$var wire 1 v! y~104_combout $end
$var wire 1 w! y~105_combout $end
$var wire 1 x! y~106_combout $end
$var wire 1 y! y~41_combout $end
$var wire 1 z! y~107_combout $end
$var wire 1 {! y~108_combout $end
$var wire 1 |! y~109_combout $end
$var wire 1 }! y~110_combout $end
$var wire 1 ~! always1~64_combout $end
$var wire 1 !" y~111_combout $end
$var wire 1 "" always1~55_combout $end
$var wire 1 #" y~112_combout $end
$var wire 1 $" y~113_combout $end
$var wire 1 %" y~114_combout $end
$var wire 1 &" y~119_combout $end
$var wire 1 '" y~115_combout $end
$var wire 1 (" y~133_combout $end
$var wire 1 )" y~116_combout $end
$var wire 1 *" y~117_combout $end
$var wire 1 +" y~118_combout $end
$var wire 1 ," y~120_combout $end
$var wire 1 -" y~121_combout $end
$var wire 1 ." y~134_combout $end
$var wire 1 /" always1~56_combout $end
$var wire 1 0" y~122_combout $end
$var wire 1 1" y~123_combout $end
$var wire 1 2" always1~65_combout $end
$upscope $end
$upscope $end
$enddefinitions $end
#0
$dumpvars
b110110001010000 !
01
00
0/
0.
0-
0,
0+
0*
0)
0(
0'
0&
1%
0$
0#
0"
02
13
x4
15
16
17
08
09
0:
0;
0<
0=
0>
0?
0@
0A
0B
0C
1D
0E
0F
0G
0H
1I
0J
1K
0L
1M
0N
0O
1P
0Q
0R
0S
0T
0U
0V
1W
0X
1Y
1Z
0[
1\
1]
0^
0_
1`
0a
1b
0c
1d
1e
1f
0g
1h
1i
1j
0k
1l
0m
1n
0o
1p
1q
1r
1s
1t
1u
0v
0w
1x
1y
1z
0{
1|
1}
1~
1!!
0"!
0#!
1$!
1%!
1&!
0'!
1(!
0)!
1*!
1+!
0,!
1-!
0.!
0/!
10!
11!
02!
03!
04!
05!
16!
17!
08!
19!
0:!
1;!
0<!
1=!
1>!
0?!
0@!
0A!
1B!
0C!
1D!
0E!
0F!
0G!
0H!
0I!
1J!
1K!
1L!
0M!
1N!
0O!
1P!
1Q!
1R!
0S!
0T!
0U!
0V!
1W!
1X!
0Y!
0Z!
1[!
0\!
0]!
0^!
0_!
1`!
1a!
0b!
0c!
1d!
1e!
1f!
1g!
0h!
0i!
0j!
0k!
0l!
0m!
0n!
0o!
0p!
0q!
0r!
1s!
1t!
0u!
0v!
1w!
0x!
0y!
0z!
1{!
1|!
0}!
1~!
0!"
1""
0#"
0$"
0%"
0&"
0'"
1("
0)"
1*"
0+"
0,"
0-"
1."
1/"
00"
01"
12"
$end
#5000
b10110001010000 !
b110001010000 !
b1110001010000 !
b1010001010000 !
b1000001010000 !
b1000011010000 !
b1000010010000 !
b1000010000000 !
b1000010000100 !
b1000010000101 !
1U
1V
0M
0P
1O
0K
0Y
1H
0I
0\
0W
0|!
1T!
0N!
1H!
0D!
13!
1.!
0(!
1#!
1L
0*"
1)"
0{!
1n!
1c!
0X!
0=!
0+!
0*!
1a
0Z
0t!
1V!
0r
1o
1S!
1h!
0e!
0>!
1k
0h
02"
0D
1}!
1k!
1U!
0g!
0V!
0B!
00!
0."
1*"
1i!
1Y!
0-!
0~!
1?!
0%!
0f!
09!
0L!
0%
1!"
0W!
0h!
06!
1."
1,"
0w!
1A!
0&!
1:!
1j!
1Z!
1@!
19
1;
1=
1$"
0i!
1\!
1,
1.
10
0Z!
10"
11"
1M!
0@!
12!
18
09
1:
1C
1B
0;
1]!
0.
1'
1&
1/
00
11
1%"
0j!
0=
1@
1)
0,
1_!
1<
1-
#10000
b1001000010000101 !
b1001001010000101 !
b1001001110000101 !
b1001001110100101 !
b1001001110101101 !
b1101001110101101 !
b1101101110101101 !
b1101111110101101 !
b1101111100101101 !
b1101111101101101 !
b1101111101111101 !
b1101111101111001 !
b1101111101111000 !
0U
0V
1T
1M
1N
1P
0O
1R
1J
1K
1Y
1\
1[
0T!
1N!
0H!
0.!
0#!
0L
0*"
0""
0}!
1^!
1X!
14!
1+!
0f
0a
1Z
1~!
1t!
0k!
1e!
0S!
0q
0k
0!"
0U!
1V!
1B!
10!
0."
1#"
1%!
0,"
1m!
0u
04!
0$"
0K!
16!
01!
1$"
1&"
1w!
0A!
1&!
0!!
00"
1p!
0%"
0@
1>
0B
0\!
1<!
1,"
0%!
0'
1+
0)
0M!
02!
10"
1-"
01"
0_!
1@!
19
0<
0C
1A
1B
08
0:
0]!
0&"
0w!
1A!
0&!
0/
01
1'
1(
0&
0-
10
00"
0-"
1%"
1@
0A
0B
0'
0(
1)
#15000
b1101111101111010 !
b101111101111010 !
b101111001111010 !
b101111001011010 !
b101111001010010 !
b1111001010010 !
b1011001010010 !
b1011000010010 !
1S
0T
0N
0P
0R
0Y
0\
0[
1*"
1""
1}!
0^!
0X!
1T!
0N!
1.!
0+!
1#!
1f
1a
0Z
0t!
0e!
1S!
1H!
1q
1k
1f!
1-!
1."
0#"
1k!
1U!
0V!
0B!
00!
0-!
0~!
0f!
0m!
1u
11!
0$"
1K!
06!
1!"
1!!
10"
0p!
12!
18
0>
1B
1\!
0<!
1$"
1'
0+
11
0%"
1M!
11"
1C
1:
0@
1]!
0)
1/
1&
0@!
1%"
1@
09
00
1)
1_!
1<
1-
#20000
b1011010010010 !
b1011010000010 !
b1011010000110 !
b1011010000111 !
b1011010000101 !
b1001011010000101 !
b1001011110000101 !
b1001011110001101 !
b1101011110001101 !
1U
0S
1V
1T
0M
1O
1R
1\
1[
1~!
1t!
0k!
1e!
1X!
0S!
0H!
1+!
1{
0q
0k
0)"
0!"
0,"
1q!
0U!
1m!
0u
1B!
10!
1%!
0*"
0$"
1r!
0!!
0K!
16!
01!
1&"
1w!
0A!
1&!
0."
00"
1p!
0%"
0@
1>
0B
1,"
0%!
0\!
1<!
0'
1+
0)
1v!
01"
0M!
02!
10"
1-"
0_!
1@!
19
0<
1A
1B
08
0:
0C
1?
0&"
0w!
1A!
0&!
0]!
1*
0&
0/
01
1'
1(
0-
10
00"
0-"
0A
0B
0'
0(
#25000
b1111011110001101 !
b1110011110001101 !
b1110111110001101 !
b1110111100001101 !
b1110111100011101 !
b1110111100011001 !
b1110111000011001 !
b1110111000010001 !
b1010111000010001 !
0V
0T
1M
0O
0R
1Y
0H
1I
0\
1*"
1)"
0}!
0n!
0c!
0X!
0T!
1N!
1=!
0.!
0+!
0#!
0{
0t
0a
1Z
1|!
0t!
1D!
0;!
1r
1q
0o
03!
1(!
0b
0e!
1H!
1."
0*"
1g!
0B!
0q!
1;!
1b
0<!
0s
0m!
1t
1*!
0."
1K!
0r!
1<!
00!
1B!
10"
0@!
0p!
0>
09
1B
06!
11!
0K!
1'
00
0+
00"
1M!
0v!
1@!
19
0?
1:
0B
1\!
0<!
0'
1/
0*
10
12!
0M!
0:
18
1]!
11
0/
0@!
09
00
1_!
1<
1-
#30000
b1010110000010001 !
b1010100000010001 !
b1010100000110001 !
b1010100001110001 !
b1010100001110011 !
b1000100001110011 !
b1000100011110011 !
b1000100011100011 !
b1000100011100111 !
b1000100111100111 !
1S
1V
0M
1N
1P
1O
1R
0J
0K
0I
13!
0(!
1L
0("
1z!
1y!
1n!
1c!
1O!
0=!
1,!
0r
1m
1g
0*!
1*"
1{!
1-!
0g!
1s
1f!
18!
1."
10!
1u
19!
16!
1W!
1!!
0:!
10"
1B
0\!
0,"
1%!
1K!
1'
1Z!
11"
1C
1;
0]!
1&"
1w!
0A!
1&!
1.
1&
00"
1M!
1:
0B
0'
1/
0_!
10"
1-"
01"
0M!
1@!
02!
08
19
0:
0C
1A
1B
0<
0-
1'
1(
0&
0/
10
01
#35000
b1000100111100110 !
b1001100111100110 !
b1001000111100110 !
b1001001111100110 !
b1001001111000110 !
b1001001110000110 !
b1001001110000100 !
b1011001110000100 !
b1011001100000100 !
b1011001100000000 !
b1011001000000000 !
0U
0S
0V
0N
0P
0O
0R
1J
0Y
1H
1I
1W
1Q
0|!
1T!
0N!
0D!
03!
1.!
1(!
1#!
0L
1}!
0n!
0c!
0,!
1v
0m
1a
1("
0z!
0y!
1t!
0O!
1w
0g
1"!
0-!
0z
0b
0)"
0{!
0[!
0f!
08!
0!!
0*"
1\!
09!
1,"
0%!
0."
1]!
1:!
0&"
0w!
1A!
0&!
0K!
1<!
00"
0-"
1_!
12!
18
1<
0A
0B
0'
0(
1-
11
#40000
b1011001001000000 !
b1011001001000100 !
b1011001101000100 !
1V
1P
1R
0W
0Q
0"!
#45000
b1011001101001100 !
b1011001101001101 !
b1010001101001101 !
b1010000101001101 !
b1010000101101101 !
b1000000101101101 !
b1000000111101101 !
b1000000110101101 !
b1000000010101101 !
1U
1T
1N
0P
1O
0R
0J
0H
0I
1|!
1D!
13!
0(!
1L
0("
1z!
1y!
0t!
1n!
0d!
1,!
0w
1g
0a
1b
0}!
1)"
1{!
1-!
1[!
1z
1f!
18!
1*"
0\!
1!!
19!
1."
0]!
0,"
1%!
0:!
11"
1C
1&"
1w!
0A!
1&!
1K!
0<!
1&
0_!
0<
0-
10"
1-"
01"
02!
08
0C
1A
1B
1'
1(
0&
01
#50000
b10101101 !
b100000010101101 !
b100000010111101 !
b100000010111111 !
b100000010111011 !
b100000010111010 !
b101000010111010 !
b101001010111010 !
b101001011111010 !
b101001111111010 !
0U
1S
0V
1M
1P
1R
1J
1H
1\
0[
0|!
0H!
0D!
0L
1("
0z!
0y!
1t!
1d!
1c!
1X!
0,!
1+!
1o
0g
1a
0Z
1}!
0s!
1o!
08!
0v
1h
0)"
0{!
0f!
0-!
1)"
0*"
1e!
1-!
0]
1x!
1L!
01!
1v!
1p!
1>
1?
1*"
0."
1f!
11!
0L!
1A!
1*
1+
12!
11"
1%"
1@
1C
18
1."
1i!
11
1&
1)
1M!
1:
1/
1j!
1=
1,
#55000
b101011111111010 !
b1011111111010 !
b1011111101010 !
b1011111101110 !
b1011111101111 !
b1010111101111 !
b1010110101111 !
b1010010101111 !
1U
1V
0M
0P
0R
0J
1K
0\
1H!
0~!
0t!
1s!
0o!
1k!
0e!
0X!
1S!
0+!
1k
0h
1]
1,"
1!"
0x!
0f!
1U!
0-!
0B!
09!
00!
0%!
0i!
0A!
0v!
0p!
02!
08
0>
0?
1$"
0W!
1:!
06!
0&"
0w!
1A!
0&!
0*
0+
01
01"
0%"
0j!
0M!
0:
0=
0@
0C
1\!
0&
0)
0,
0/
1%"
0Z!
0-"
11"
1M!
0@!
12!
18
09
1:
1C
0A
0;
1@
1]!
1)
0.
0(
1&
1/
00
11
1_!
1<
1-
#60000
b1010010100111 !
b1010010000111 !
b1010000000111 !
b1000000000111 !
b1000000010111 !
b1000000010110 !
b1000001010110 !
0U
0T
1M
0N
1P
0O
0K
1L
#65000
b1100001010110 !
b11100001010110 !
b111100001010110 !
b111100001010010 !
b111100101010010 !
b111110101010010 !
b111110101000010 !
b111110101000011 !
b111110100000011 !
1U
0V
0M
0P
1R
1K
1Y
1I
1\
1Q
0T!
1N!
0H!
03!
0.!
1(!
0#!
0L
0*"
0)"
0}!
1{!
0n!
0c!
1X!
14!
1,!
1+!
0a
1_
1Z
1~!
1z!
1t!
0S!
1w
0o
0s!
1o!
0k!
1e!
0k
1h
0]
0U!
04!
1B!
10!
1*!
0."
1*"
0!"
1s!
0o!
1-!
1f!
1%!
1]
0,"
19!
1v!
1?
1W!
16!
0K!
1."
0$"
1&"
1w!
1L!
0A!
1&!
0:!
1*
00"
0v!
0?
0B
0\!
1K!
0'
0*
1Z!
0M!
10"
0%"
1-"
01"
0_!
1@!
02!
08
19
0<
0C
1A
0@
1B
0:
1;
0]!
1.
0/
1'
0)
1(
0&
0-
10
01
#70000
b1111110100000011 !
b1111110100000001 !
b1110110100000001 !
b1110110100100001 !
b1110010100100001 !
b1010010100100001 !
b1010010100100101 !
b1010000100100101 !
b1010000100100100 !
0U
0S
1V
1N
0K
0Y
0H
0\
1[
0Q
1|!
1T!
0N!
1H!
1D!
1.!
1#!
1L
0*"
1}!
0{!
1c!
1^!
0[!
0X!
0,!
0*!
1v
0j
0_
0z!
0t!
0w
1r
0e!
0h
0`
0."
1\!
0-!
0+!
0~
0f!
1`
1[!
0L!
09!
1_!
1<
1]!
01!
0!!
0\!
1:!
1-
0_!
0<
1,"
0%!
0]!
0K!
1<!
0-
0&"
0w!
1A!
0&!
00"
0-"
0A
0B
0'
0(
#75000
b1010001100100100 !
b1000001100100100 !
b1000001000100100 !
b1000100100 !
b1000100110 !
b1000000110 !
b101000000110 !
b100101000000110 !
b100111000000110 !
1S
0N
0R
1J
1K
1Y
0I
1\
0[
1Q
0T!
1N!
0H!
13!
0.!
0(!
0#!
0L
1*"
0}!
1{!
1n!
0^!
1X!
1+!
1*!
0v
1m
1j
0("
1t!
0d!
0r
1g
0s!
1o!
1e!
1h
1d!
1O!
1("
0*!
1."
1-!
1~
0n
0e!
1f!
19!
1v!
1?
1e!
0R!
11!
1!!
0f!
1i!
0:!
1*
10"
1p!
1>
1B
1f!
0,"
1%!
0i!
1K!
0<!
1'
1+
0Z!
12!
11"
1j!
1=
1C
18
0;
1i!
1&"
1w!
0.
11
1&
1,
00"
0j!
1M!
0@!
09
1:
0=
0B
1x!
0'
0,
1/
00
1j!
10"
1-"
01"
0C
1A
1B
1=
1,
1'
1(
0&
11"
1%"
1@
1C
1&
1)
#80000
b100111000010110 !
b100111001010110 !
b100111001010111 !
b100110001010111 !
b110110001010111 !
b110110101010111 !
b1110110101010111 !
b1110010101010111 !
b1110000101010111 !
1U
1M
1P
1R
0J
0K
0Y
1I
1[
0Q
1T!
0N!
03!
1.!
1(!
1#!
1L
0*"
1}!
0{!
0n!
1^!
1{
0m
0j
0i
0`!
0O!
1r
0g
1s!
0o!
0f!
0-!
0h
0a!
0."
1#"
0;!
0~
1n
0l
1]!
1:!
1R!
1i
0x!
0i!
01!
09!
0v!
0p!
0>
0?
1r!
1m!
1b!
1$"
0!!
0A!
1&!
0n
0K!
0]!
1l
0*
0+
1_!
1Z!
01"
0%"
0j!
02!
08
0=
0@
0C
1;
1<
1,"
0%!
1A!
0&!
1n
1-
1.
0&
0)
0,
01
1v!
1p!
1j!
0_!
0M!
1@!
19
0:
0<
1=
1>
1?
0&"
0w!
1*
1+
1,
0-
0/
10
0@!
09
00
00"
0-"
1%"
1@
0A
0B
0'
0(
1)
#85000
b1110000101011111 !
b1110000111011111 !
b1111000111011111 !
b1111000111011011 !
b1111000111111011 !
b1011000111111011 !
b1011000111101011 !
b1011000110101011 !
b1011001110101011 !
b1001001110101011 !
0V
1T
0M
1N
0P
1O
1J
1H
0I
0\
0|!
1H!
0D!
13!
0(!
0L
0t!
1n!
1`!
0^!
0X!
1;!
0+!
0r
1o
1j
1a
0Z
0}!
0e!
0{
1v
1}!
1a!
1<!
0#"
1~
0p
0r!
0m!
0b!
0$"
1!!
0;!
0u
1@!
19
0,"
1%!
0<!
0W!
0!!
10
0v!
0p!
0j!
0%"
11"
1C
0@
0=
0>
0?
1&"
1w!
0A!
1&!
1,"
0%!
0*
0+
0,
0)
1&
0@!
0Z!
01"
0C
0;
09
0&"
0w!
1A!
0&!
00
0.
0&
10"
1-"
1@!
19
1A
1B
1'
1(
10
00"
0-"
0@!
09
0A
0B
0'
0(
00
#90000
b1001001110101001 !
b1001101110101001 !
b1001111110101001 !
b1000111110101001 !
b1000111110101101 !
b1000111110001101 !
0S
1V
0N
1K
1Y
0H
1|!
0T!
1N!
1D!
0.!
0#!
1*"
1)"
0}!
1,!
0v
0t
1p
1m
0a
1Z
0("
1z!
1y!
0d!
0o
1g
1d!
1O!
0B!
1."
1-!
1;!
1{!
1t
1f!
18!
1K!
11!
1<!
1B!
1u
19!
10"
1B
0K!
1W!
1!!
0:!
1'
1M!
12!
1@!
19
18
1:
0,"
1%!
1K!
0<!
1/
11
10
0M!
1Z!
11"
1C
1;
0:
1&"
1w!
0A!
1&!
0/
1.
1&
00"
1M!
0@!
09
1:
0B
0'
1/
00
10"
1-"
01"
0M!
1@!
02!
08
19
0:
0C
1A
1B
1'
1(
0&
0/
10
01
#95000
b1000111110001100 !
b1000111010001100 !
b1000111010011100 !
b1000111011011100 !
b1000110011011100 !
b1010110011011100 !
b1010010011011100 !
b1010010011011000 !
0U
0V
1M
1P
0R
0J
0Y
1I
1T!
0N!
03!
1.!
1(!
1#!
1}!
0n!
1^!
0,!
1v
0m
0j
1("
0z!
0y!
0O!
1r
0g
0-!
0~
0)"
0{!
0f!
08!
01!
0!!
0*"
09!
1,"
0%!
0."
1:!
0&"
0w!
1A!
0&!
0K!
1<!
00"
0-"
0A
0B
0'
0(
#100000
b1010010001011000 !
b1010010001011010 !
b1010010001111010 !
b1010010001111011 !
b1010010001101011 !
b1010011001101011 !
b1010111001101011 !
1U
1S
0M
1N
0O
1J
1Y
0T!
1N!
0.!
0#!
1*"
1)"
0}!
0c!
0^!
1=!
1*!
0v
0s
1j
1g!
00!
1."
0*"
1~
0u
06!
11!
0."
0W!
10"
1B
1\!
0<!
1'
12!
00"
0Z!
0;
0B
18
1]!
11
0'
0.
0@!
09
00
1_!
1<
1-
#105000
b1110111001101011 !
b1111111001101011 !
b1111111000101011 !
b1111111000101111 !
b1111111000001111 !
b1111111000001110 !
b1111011000001110 !
0U
1V
0N
0P
0Y
1H
1\
1Q
1*"
0)"
1}!
1X!
1T!
0N!
0=!
1.!
1+!
0*!
1#!
1{
1s
1a
0|!
1z!
1t!
0D!
1w
0r
1e!
0H!
1."
0*"
0g!
10!
1F!
0}
1u
0/"
0."
16!
01!
1K!
1m!
1W!
10"
1B
0\!
1<!
1'
02!
1M!
1p!
1Z!
1;
1>
1:
08
0]!
01
1/
1+
1.
1@!
19
10
0_!
0<
0-
#110000
b111011000001110 !
b111001000001110 !
b111001100001110 !
b101001100001110 !
b101001110001110 !
b101000110001110 !
b1000110001110 !
b110001110 !
b111001110 !
b100111001110 !
1P
1O
1R
0J
0K
1Y
0H
0I
0\
0[
0Q
1|!
0T!
1N!
1H!
1D!
13!
0.!
0(!
0#!
1L
1/"
1*"
0}!
1{!
1n!
1c!
0X!
1,!
0+!
1*!
0{
1m
0a
1y!
0t!
1l!
0d!
0F!
1}
0w
1g
0~!
1S!
1k!
0e!
1k
1f!
1-!
0k!
1d!
1O!
0("
1E!
0*!
0$!
1+"
1!"
0-!
0l!
1~!
0{!
0K!
1!!
0f!
11!
00"
0B
1r!
0P!
1$"
1\!
01!
0m!
0!"
0'
1-"
0M!
11"
12!
18
1C
0:
1A
0Q!
1]!
1(
0/
1&
11
1v!
1%"
02!
0p!
0>
08
1@
1?
1*
1)
01
0+
1j!
0Z!
1_!
1<
0;
1=
1,
0.
1-
#115000
b100111000110 !
b100111000111 !
b100011000111 !
b10100011000111 !
b10100001000111 !
b10101001000111 !
b110101001000111 !
b111101001000111 !
b111101000000111 !
b111001000000111 !
1U
0T
0P
0O
0R
1J
0Y
1H
1I
1\
1Q
0|!
1T!
0N!
0H!
0D!
03!
1.!
1(!
1#!
0L
0*"
1}!
0n!
0c!
1X!
0E!
0,!
1+!
0m
1a
1("
0y!
1t!
0O!
1F!
1w
0g
0$"
0S!
1."
0s!
1o!
1e!
0k
1h
1$!
0."
0+"
1s!
0o!
0\!
0F!
1-!
1)"
0r!
1P!
1K!
1f!
19!
0%"
10"
1B
0@
0,"
1%!
0]!
0K!
11!
1*"
1Q!
0:!
0)
1'
00"
0-"
0v!
1M!
1:
0?
0A
0B
1&"
1w!
1L!
0A!
1&!
1."
1K!
0<!
0'
0(
0*
1/
0_!
0M!
12!
0j!
1Z!
1;
0=
18
0:
0<
0-
0/
11
0,
1.
10"
1-"
01"
02!
08
0C
1A
1B
1'
1(
0&
01
#120000
b111001000010111 !
b111001000010011 !
b111001000011011 !
b111000000011011 !
b111000001011011 !
b111100001011011 !
0V
1T
1M
1P
0J
1Y
0Q
0T!
1N!
0.!
0#!
1L
0)"
0}!
1{!
1,!
1*!
0a
1_
#125000
b111100001011001 !
b111100001111001 !
b111110001111001 !
b111110101111001 !
b101110101111001 !
b1110101111001 !
b1110101111101 !
b1111101111101 !
b1111100111101 !
0S
1V
1N
0P
1R
1J
1K
0I
0\
1H!
13!
0(!
0L
0z!
0t!
1n!
1c!
1^!
1V!
1S!
0,!
0w
1o
0f
0_
0e!
0X!
1k
0h
0`
14!
0*!
0-!
0w!
0l
0f!
1`
09!
0L!
0e
1_!
1M!
1:
1<
06!
0+!
01!
0n
1-!
1e
1:!
1-
1/
11"
0_!
0M!
0:
0<
1C
1\!
0-!
1A!
0&!
11!
0K!
1&
0-
0/
1]!
01!
0@!
12!
18
09
00
11
1_!
02!
08
1<
1-
01
#130000
b1001111100111101 !
b1001111100111100 !
b1001111100110100 !
b1001111100110110 !
b1101111100110110 !
b1101111100110010 !
0U
1S
0V
0T
1\
1[
0""
1t!
1e!
1X!
0S!
0H!
1+!
0q
0k
1)"
0{!
1#"
1m!
0u
1w!
04!
1l
0*"
1$"
0W!
0!!
16!
1n
0."
1p!
01"
0C
1>
1,"
0%!
0\!
1<!
0A!
1&!
1+
0&
0Z!
0;
0&"
0w!
1A!
0&!
0]!
0.
1@!
0_!
0<
19
10
0-
00"
0-"
1%"
1@
0A
0B
0'
0(
1)
#135000
b1101111110110010 !
b1101011110110010 !
b1101011010110010 !
b101011010110010 !
b101011010111010 !
b101011010111000 !
0S
1T
1O
0R
0Y
0[
1*"
1""
1}!
0^!
1T!
0N!
1.!
1#!
1f
1a
0Z
0s!
1o!
1f!
1-!
1q
1h
1."
0#"
0V!
0]
1i!
11!
0m!
1u
19!
1v!
1?
0$"
1W!
1!!
0:!
1*
10"
12!
1j!
1=
18
1B
0,"
1%!
1K!
0<!
1'
11
1,
0%"
1Z!
11"
1C
1;
0@
1&"
1w!
1&!
0)
1.
1&
00"
1M!
0@!
09
1:
0B
1x!
0'
1/
00
10"
1-"
01"
1@!
19
0C
1A
1B
1'
1(
0&
10
11"
1%"
1@
1C
1&
1)
#140000
b101011010101000 !
b101011010001000 !
b111011010001000 !
b111010010001000 !
b111010011001000 !
b111010011001001 !
b11010011001001 !
b11010011001101 !
b11010001001101 !
b11110001001101 !
b11110101001101 !
b11110101000101 !
b11110101000111 !
1U
1S
1V
0T
0M
0N
1P
0O
1R
0J
1Y
1I
0\
0T!
1N!
1H!
03!
0.!
1(!
0#!
0*"
0)"
0}!
1{!
0n!
0c!
0X!
0+!
0a
1_
1Z
1w
0o
1c
0b
1s!
0o!
1k!
0e!
1k
0h
1]
0k!
0Q!
1I!
1*!
0."
1*"
0i!
0-!
1b
0f!
0`
1u!
0e
0x!
09!
0A!
0v!
0p!
02!
08
0>
0?
0J!
1+!
1."
01!
1x!
0n
1:!
0*
0+
01
0Z!
1v!
01"
0%"
0M!
0:
0@
0C
1?
0;
1\!
1A!
0&!
1<!
0.
1*
0&
0)
0/
11"
1%"
1@
1C
1]!
1&
1)
1M!
1:
1/
1_!
1<
1-
